<tr>
							<td>
								<img class="galleryimg" href="images/fallout.jpg"  src="images/fallout.jpg" alt="fallout">
								<h2>Fallout boyz!</h2>
								<p> This is a description</p>
								
							</td>
							<td>
								<img  href="images/fallout.jpg" class="galleryimg" src="images/fallout.jpg" alt="fallout">
								<h2>Fallout boyz!</h2>
								<p> This is a description</p>
								
								
							</td>
							<td>
								<img  href="images/fallout.jpg" class="galleryimg" src="images/fallout.jpg" alt="fallout">
								<h2>Fallout boyz!</h2>
								<p> This is a description</p>
								
								
							</td>
						</tr>
						<tr>
							<td>
								<img href="images/fallout.jpg"  class="galleryimg" src="images/fallout.jpg" alt="fallout">
								<h2>Fallout boyz!</h2>
								<p> This is a description</p>
								
							</td>
							<td>
								<img href="images/fallout.jpg"  class="galleryimg" src="images/fallout.jpg" alt="fallout">
								<h2>Fallout boyz!</h2>
								<p> This is a description</p>
								
								
							</td>
							<td>
								<img href="images/fallout.jpg"  class="galleryimg" src="images/fallout.jpg" alt="fallout">
								<h2>Fallout boyz!</h2>
								<p> This is a description</p>
								
								
							</td>
						</tr>
					

