O:5:"Event":3:{s:5:"datum";s:10:"01/23/2017";s:11:"description";s:10:"Test event";s:7:"players";a:1:{i:0;s:10:"NormalUser";}}
O:5:"Event":3:{s:5:"datum";s:10:"01/24/2017";s:11:"description";s:18:"Teeeeeeest event 2";s:7:"players";a:2:{i:0;s:10:"NormalUser";i:1;s:6:"Admin1";}}
O:5:"Event":3:{s:5:"datum";s:10:"01/25/2017";s:11:"description";s:63:"Sample description for a Wednesday event on the 25th of January";s:7:"players";a:1:{i:0;s:6:"Admin1";}}
O:5:"Event":3:{s:5:"datum";s:10:"01/30/2017";s:11:"description";s:35:"This is an example event for monday";s:7:"players";a:1:{i:0;s:6:"Admin1";}}
O:5:"Event":3:{s:5:"datum";s:10:"01/31/2017";s:11:"description";s:36:"This is an example event for tuesday";s:7:"players";a:1:{i:0;s:6:"Admin1";}}
O:5:"Event":3:{s:5:"datum";s:10:"01/29/2017";s:11:"description";s:35:"This is an example event for Sunday";s:7:"players";a:1:{i:0;s:6:"Admin1";}}
O:5:"Event":3:{s:5:"datum";s:10:"01/28/2017";s:11:"description";s:37:"This is an example event for Saturday";s:7:"players";a:1:{i:0;s:6:"Admin1";}}
